\relax 
\@writefile{toc}{\contentsline {section}{\numberline {1}Estimation of pi}{1}}
\@writefile{lof}{\contentsline {figure}{\numberline {1}{\ignorespaces Digraph.}}{1}}
\newlabel{fig:digraph}{{1}{1}}
\@writefile{lof}{\contentsline {figure}{\numberline {2}{\ignorespaces Digraph.}}{2}}
\newlabel{fig:digraph}{{2}{2}}
